v 20110115 2
L 800 2500 700 2000 3 0 0 0 -1 -1
L 1500 2500 1400 2000 3 0 0 0 -1 -1
L 900 2600 1400 2600 3 0 0 0 -1 -1
L 800 1900 1300 1900 3 0 0 0 -1 -1
L 700 1800 600 1300 3 0 0 0 -1 -1
L 1400 1800 1300 1300 3 0 0 0 -1 -1
L 700 1200 1200 1200 3 0 0 0 -1 -1
V 1500 1300 100 3 0 0 0 -1 -1 0 -1 -1 -1 -1 -1
L 2000 2500 1900 2000 3 0 0 0 -1 -1
L 2700 2500 2600 2000 3 0 0 0 -1 -1
L 2100 2600 2600 2600 3 0 0 0 -1 -1
L 2000 1900 2500 1900 3 0 0 0 -1 -1
L 1900 1800 1800 1300 3 0 0 0 -1 -1
L 2600 1800 2500 1300 3 0 0 0 -1 -1
L 1900 1200 2400 1200 3 0 0 0 -1 -1
V 2700 1300 100 3 0 0 0 -1 -1 0 -1 -1 -1 -1 -1
L 3300 2500 3200 2000 3 0 0 0 -1 -1
L 4000 2500 3900 2000 3 0 0 0 -1 -1
L 3400 2600 3900 2600 3 0 0 0 -1 -1
L 3300 1900 3800 1900 3 0 0 0 -1 -1
L 3200 1800 3100 1300 3 0 0 0 -1 -1
L 3900 1800 3800 1300 3 0 0 0 -1 -1
L 3200 1200 3700 1200 3 0 0 0 -1 -1
V 3100 2500 100 3 0 0 0 -1 -1 0 -1 -1 -1 -1 -1
L 4500 2500 4400 2000 3 0 0 0 -1 -1
L 5200 2500 5100 2000 3 0 0 0 -1 -1
L 4600 2600 5100 2600 3 0 0 0 -1 -1
L 4500 1900 5000 1900 3 0 0 0 -1 -1
L 4400 1800 4300 1300 3 0 0 0 -1 -1
L 5100 1800 5000 1300 3 0 0 0 -1 -1
L 4400 1200 4900 1200 3 0 0 0 -1 -1
V 4300 2500 100 3 0 0 0 -1 -1 0 -1 -1 -1 -1 -1
T 1100 2500 9 10 1 0 0 0 2
A

T 1500 2200 9 10 1 0 0 0 1
B
T 1400 1500 9 10 1 0 0 0 1
C
T 900 1000 9 10 1 0 0 0 1
D
T 400 1500 9 10 1 0 0 0 1
E
T 500 2200 9 10 1 0 0 0 1
F
T 1000 2000 9 10 1 0 0 0 1
G
T 1400 1000 9 10 1 0 0 0 1
Dp1
T 700 800 9 10 1 0 0 0 1
Digit 1
T 1900 800 9 10 1 0 0 0 1
Digit 2
T 3200 800 9 10 1 0 0 0 1
Digit 3
T 4400 800 9 10 1 0 0 0 1
Digit 4
B 0 400 5700 2800 3 0 0 0 -1 -1 0 -1 -1 -1 -1 -1
P 1700 0 1700 400 1 0 0
{
T 1700 0 5 10 0 0 0 0 1
pintype=in
T 1745 600 3 10 1 1 180 0 1
pinlabel=E
T 1495 250 5 10 1 1 180 6 1
pinnumber=1
T 1700 0 5 10 0 0 0 0 1
pinseq=1
}
P 2100 0 2100 400 1 0 0
{
T 2100 0 5 10 0 0 0 0 1
pintype=in
T 2145 600 3 10 1 1 180 0 1
pinlabel=D
T 1895 250 5 10 1 1 180 6 1
pinnumber=2
T 2100 0 5 10 0 0 0 0 1
pinseq=2
}
P 2500 0 2500 400 1 0 0
{
T 2500 0 5 10 0 0 0 0 1
pintype=in
T 2545 600 3 10 1 1 180 0 1
pinlabel=Dp
T 2295 250 5 10 1 1 180 6 1
pinnumber=3
T 2500 0 5 10 0 0 0 0 1
pinseq=3
}
P 2900 0 2900 400 1 0 0
{
T 2900 0 5 10 0 0 0 0 1
pintype=in
T 2945 600 3 10 1 1 180 0 1
pinlabel=C
T 2695 250 5 10 1 1 180 6 1
pinnumber=4
T 2900 0 5 10 0 0 0 0 1
pinseq=4
}
P 3300 0 3300 400 1 0 0
{
T 3300 0 5 10 0 0 0 0 1
pintype=in
T 3345 600 3 10 1 1 180 0 1
pinlabel=G
T 3095 250 5 10 1 1 180 6 1
pinnumber=5
T 3300 0 5 10 0 0 0 0 1
pinseq=5
}
P 3700 0 3700 400 1 0 0
{
T 3700 0 5 10 0 0 0 0 1
pintype=pwr
T 3745 600 3 10 1 1 180 0 1
pinlabel=4
T 3495 250 5 10 1 1 180 6 1
pinnumber=6
T 3700 0 5 10 0 0 0 0 1
pinseq=6
}
P 4100 0 4100 400 1 0 0
{
T 4100 0 5 10 0 0 0 0 1
pintype=in
T 4145 600 3 10 1 1 180 0 1
pinlabel=B
T 3895 250 5 10 1 1 180 6 1
pinnumber=7
T 4100 0 5 10 0 0 0 0 1
pinseq=7
}
P 4100 3600 4100 3200 1 0 0
{
T 4100 3600 5 10 0 0 0 0 1
pintype=pwr
T 4055 3100 3 10 1 1 180 6 1
pinlabel=3
T 4005 3450 5 10 1 1 180 0 1
pinnumber=8
T 4100 3600 5 10 0 0 0 0 1
pinseq=8
}
P 3700 3600 3700 3200 1 0 0
{
T 3700 3600 5 10 0 0 0 0 1
pintype=pwr
T 3655 3100 3 10 1 1 180 6 1
pinlabel=2
T 3605 3450 5 10 1 1 180 0 1
pinnumber=9
T 3700 3600 5 10 0 0 0 0 1
pinseq=9
}
P 3300 3600 3300 3200 1 0 0
{
T 3300 3600 5 10 0 0 0 0 1
pintype=in
T 3255 3100 3 10 1 1 180 6 1
pinlabel=F
T 3205 3450 5 10 1 1 180 0 1
pinnumber=10
T 3300 3600 5 10 0 0 0 0 1
pinseq=10
}
P 2900 3600 2900 3200 1 0 0
{
T 2900 3600 5 10 0 0 0 0 1
pintype=in
T 2855 3100 3 10 1 1 180 6 1
pinlabel=A
T 2805 3450 5 10 1 1 180 0 1
pinnumber=11
T 2900 3600 5 10 0 0 0 0 1
pinseq=11
}
P 2500 3600 2500 3200 1 0 0
{
T 2500 3600 5 10 0 0 0 0 1
pintype=pwr
T 2455 3100 3 10 1 1 180 6 1
pinlabel=1
T 2405 3450 5 10 1 1 180 0 1
pinnumber=12
T 2500 3600 5 10 0 0 0 0 1
pinseq=12
}
T 0 3700 8 10 0 1 0 0 1
device=MSQC6912C
T 0 3500 8 10 1 1 0 0 1
refdes=U?
